{
  "title": "",
  "fields": [
    {
      "group-title": "",
      "items": [
        {
          "label": "Provide any application/software/drivers required to test your peripheral device and links to download them (with steps) ",
          "type": "textarea",
          "validation": {
            "rule": {}
          },
          "properties": {},
          "value": "",
          "default": "",
          "note": ""
        },
        {
          "label": "Select the connectivity type",
          "type": "checkbox",
          "validation": {
            "rule": {}
          },
          "properties": {
            "USB 2.0": "USB 2.0",
            "USB 3.0": "USB 3.0",
            "Wireless": "Wireless"
          },
          "value": "",
          "default": "",
          "note": ""
        },
        {
          "label": "Select the OS versions of endpoints that are supported with your peripheral device",
          "type": "checkbox",
          "validation": {
            "rule": {}
          },
          "properties": {
            "Windows": "Windows",
            "Linux": "Linux",
            "Chrome": "Chrome",
            "Android": "Android",
            "Mac OSX": "Mac OSX"
          },
          "value": "",
          "default": "",
          "note": ""
        },
        {
          "label": "Select the supported virtual channels used to work with Citrix XenApp or XenDesktop",
          "type": "checkbox",
          "validation": {
            "rule": {}
          },
          "properties": {
            "COM Redirection (XenApp)": "COM Redirection (XenApp)",
            "COM Redirection (XenDesktop)": "COM Redirection (XenDesktop)",
            "Generic USB Redirection (XenApp)": "Generic USB Redirection (XenApp)",
            "Generic USB Redirection (XenDesktop)": "Generic USB Redirection (XenDesktop)",
            "Optimized USB Redirection": "Optimized USB Redirection",
            "Custom Virtual Channel (XenApp)": "Custom Virtual Channel (XenApp)",
            "Custom Virtual Channel (XenDesktop)": "Custom Virtual Channel (XenDesktop)"
          },
          "value": "",
          "default": "",
          "note": ""
        },
        {
          "label": "Select the VDA OS version that your peripheral device is verified with",
          "type": "checkbox",
          "validation": {
            "rule": {}
          },
          "properties": {
            "Windows 7": "Windows 7",
            "Windows 8": "Windows 8",
            "Windows 8.1": "Windows 8.1",
            "Windows 10": "Windows 10",
            "Windows 2008": "Windows 2008",
            "Windows 2008 R2": "Windows 2008 R2",
            "Windows 2012": "Windows 2012",
            "Windows 2012 R2": "Windows 2012 R2",
            "Windows 2016": "Windows 2016"
          },
          "value": "",
          "default": "",
          "note": ""
        }
      ]
    }
  ]
}