{
  "title": "",
  "fields": [
    {
      "group-title": "",
      "items": [
        {
          "label": "Select the type of platform used for testing",
          "type": "checkbox",
          "validation": {
            "rule": {
              "required": "Please fill in all the mandatory fields"
            }
          },
          "properties": {
            "Cloud": "Cloud",
            "Hypervisor": "Hypervisor",
            "Physical Infrastructure": "Physical Infrastructure"
          },
          "value": "",
          "default": "",
          "note": ""
        },
        {
          "label": "Select the type of application",
          "type": "checkbox",
          "validation": {
            "rule": {
              "required": "Please fill in all the mandatory fields"
            }
          },
          "properties": {
            "Administration": "Administration",
            "3D": "3D",
            "Monitoring": "Monitoring",
            "Analytics": "Analytics",
            "Productivity": "Productivity",
            "Business": "Business",
            "Security": "Security",
            "Pheripharal Solutions": "Pheripharal Solutions"
          },
          "value": "",
          "default": "",
          "note": ""
        },
        {
          "label": "Select the Citrix XenApp/XenDesktop version used in verification",
          "type": "select",
          "validation": {
            "rule": {
              "required": "Please fill in all the mandatory fields"
            }
          },
          "properties": {
            "":"Select",
            "7.6": "7.6",
            "7.6 LTSR": "7.6 LTSR",
            "7.8": "7.8",
            "7.9": "7.9"
          },
          "value": "",
          "default": "",
          "note": ""
        },
        {
          "label": "Enter the pre-requisites to install your application (mention any additional software or devices that may be required for your application to function)",
          "type": "textarea",
          "validation": {
            "rule": {
              "required": "Please fill in all the mandatory fields"
            }
          },
          "properties": {},
          "value": "",
          "default": "",
          "note": ""
        },
        {
          "label": "Select the Virtual Desktop Agent (VDA) operating system that your application is deployed on",
          "type": "checkbox",
          "validation": {
            "rule": {
              "required": "Please fill in all the mandatory fields"
            }
          },
          "properties": {
            "Windows 7": "Windows 7",
            "Windows 8": "Windows 8",
            "Windows 8.1": "Windows 8.1",
            "Windows 10": "Windows 10",
            "Windows 2008": "Windows 2008",
            "Windows 2008 R2": "Windows 2008 R2",
            "Windows 2012": "Windows 2012",
            "Windows 2012 R2": "Windows 2012 R2",
            "Windows 2016": "Windows 2016"
          },
          "value": "",
          "default": "",
          "note": ""
        },
        {
          "label": "Select the user profile that your application caters to",
          "type": "checkbox",
          "validation": {
            "rule": {
              "required": "Please fill in all the mandatory fields"
            }
          },
          "properties": {
            "Task Worker": "Task Worker",
            "Knowledge Worker": "Knowledge Worker",
            "Power User": "Power User"
          },
          "value": "",
          "default": "",
          "note": ""
        }
      ]
    }
  ]
}