{
  "title": "",
  "fields": [
    {
      "group-title": "",
      "items": [
        {
          "label": "Select the Scanner type",
          "type": "select",
          "validation": {
            "rule": {
              "required": "Please fill in all the mandatory fields"
            }
          },
          "properties": {
            "":"Select",
            "Flatbed Scanner": "Flatbed Scanner",
            "Photo Scanner": "Photo Scanner",
            "Sheetfed Scanner": "Sheetfed Scanner",
            "Portable Scanner": "Portable Scanner",
            "Duplex Scanner": "Duplex Scanner"
          },
          "value": "",
          "default": "",
          "note": ""
        },
        {
          "label": "Select the Scanner connectivity type",
          "type": "checkbox",
          "validation": {
            "rule": {
              "required": "Please fill in all the mandatory fields"
            }
          },
          "properties": {
            "Wi-Fi": "Wi-Fi",
            "Ethernet": "Ethernet",
            "Serial": "Serial",
            "USB 2.0": "USB 2.0",
            "USB 3.0": "USB 3.0"
          },
          "value": "",
          "default": "",
          "note": ""
        },
        {
          "label": "Select the services supported by the Scanner",
          "type": "checkbox",
          "validation": {
            "rule": {
              "required": "Please fill in all the mandatory fields"
            }
          },
          "properties": {
            "Google Drive": "Google Drive",
            "Cloud Services": "Cloud Services",
            "USB": "USB",
            "Email": "Email"
          },
          "value": "",
          "default": "",
          "note": ""
        },
        {
          "label": "Select the supported color mode",
          "type": "checkbox",
          "validation": {
            "rule": {
              "required": "Please fill in all the mandatory fields"
            }
          },
          "properties": {
            "Color": "Color",
            "Monochrome": "Monochrome",
            "Grayscale": "Grayscale"
          },
          "value": "",
          "default": "",
          "note": ""
        },
        {
          "label": "Select the Virtual Desktop Agent (VDA) operating system used for verification",
          "type": "checkbox",
          "validation": {
            "rule": {
              "required": "Please fill in all the mandatory fields"
            }
          },
          "properties": {
            "Windows 7": "Windows 7",
            "Windows 8": "Windows 8",
            "Windows 8.1": "Windows 8.1",
            "Windows 10": "Windows 10",
            "Windows 2008": "Windows 2008",
            "Windows 2008 R2": "Windows 2008 R2",
            "Windows 2012": "Windows 2012",
            "Windows 2012 R2": "Windows 2012 R2",
            "Windows 2016": "Windows 2016"
          },
          "value": "",
          "default": "",
          "note": ""
        }
      ]
    }
  ]
}