{
  "title": "",
  "fields": [
    {
      "group-title": "",
      "items": [
        {
          "label": "Enter the unique features of your product",
          "type": "textarea",
          "validation": {
            "rule": {
              "required": "Please fill in all the mandatory fields"
            }
          },
          "properties": {},
          "value": "",
          "default": "",
          "note": ""
        },
        {
          "label": "List the benefits of integrating your solution with a Citrix product",
          "type": "textarea",
          "validation": {
            "rule": {
              "required": "Please fill in all the mandatory fields"
            }
          },
          "properties": {},
          "value": "",
          "default": "",
          "note": ""
        },
        {
          "label": "Provide link(s) to documentation on how to configure your solution with Citrix products",
          "type": "textarea",
          "validation": {
            "rule": {}
          },
          "properties": {},
          "value": "",
          "default": "",
          "note": ""
        },
        {
          "label": "Provide link(s) to the demonstration videos on how your solution works with Citrix products",
          "type": "textarea",
          "validation": {
            "rule": {}
          },
          "properties": {},
          "value": "",
          "default": "",
          "note": ""
        },
        {
          "label": "Enter detailed description about your product",
          "type": "textarea",
          "validation": {
            "rule": {
              "required": "Please fill in all the mandatory fields"
            }
          },
          "properties": {},
          "value": "",
          "default": "",
          "note": ""
        },
        {
          "label": "Select the industry verticals that your solution is uniquely positioned for",
          "type": "checkbox",
          "validation": {
            "rule": {
              "required": "Please fill in all the mandatory fields"
            }
          },
          "properties": {
            "Education": "Education",
            "Financial Services": "Financial Services",
            "Healthcare": "Healthcare",
            "Public Sector": "Public Sector",
            "Manufacturing": "Manufacturing",
            "Services": "Services",
            "Retail": "Retail",
            "Technology": "Technology",
            "Insurance": "Insurance"
          },
          "value": "",
          "default": "",
          "note": ""
        }
      ]
    }
  ]
}