{
  "title": "",
  "fields": [
    {
      "group-title": "",
      "items": [
        {
          "label": "Enter the protocol used",
          "type": "text",
          "validation": {
            "rule": {
              "required": "Please fill in all the mandatory fields"
            }
          },
          "properties": {},
          "value": "",
          "default": "",
          "note": ""
        },
        {
          "label": "Select the architecture type",
          "type": "checkbox",
          "validation": {
            "rule": {
              "required": "Please fill in all the mandatory fields"
            }
          },
          "properties": {
            "Directly Programmable": "Directly Programmable",
            "Agile": "Agile",
            "Centrally Managed": "Centrally Managed",
            "Programmatically Configured": "Programmatically Configured",
            "Open Standards-based and Vendor-neutral": "Open Standards-based and Vendor-neutral"
          },
          "value": "",
          "default": "",
          "note": ""
        },
        {
          "label": "Which deployment model does your application use?",
          "type": "select",
          "validation": {
            "rule": {
              "required": "Please fill in all the mandatory fields"
            }
          },
          "properties": {
            "":"Select",
            "Proactive": "Proactive",
            "Reactive": "Reactive"
          },
          "value": "",
          "default": "",
          "note": ""
        },
        {
          "label": "Select the components in Software Defined Network (SDN) architecture that you provide",
          "type": "checkbox",
          "validation": {
            "rule": {
              "required": "Please fill in all the mandatory fields"
            }
          },
          "properties": {
            "SDN Application": "SDN Application",
            "SDN Controller": "SDN Controller",
            "SDN Datapath": "SDN Datapath",
            "SDN Control to  Data-plan Interface": "SDN Control to  Data-plan Interface",
            "SDN Northbound Interface": "SDN Northbound Interface"
          },
          "value": "",
          "default": "",
          "note": ""
        }
      ]
    }
  ]
}